%YAML 1.1
%TAG !u! tag:unity3d.com,2011:
--- !u!114 &11400000
MonoBehaviour:
  m_ObjectHideFlags: 0
  m_CorrespondingSourceObject: {fileID: 0}
  m_PrefabInstance: {fileID: 0}
  m_PrefabAsset: {fileID: 0}
  m_GameObject: {fileID: 0}
  m_Enabled: 1
  m_EditorHideFlags: 0
  m_Script: {fileID: 11500000, guid: 841fb9f3494238b4a8dbdbb6e3c03425, type: 3}
  m_Name: Quest2
  m_EditorClassIdentifier: 
  title: Corn killer
  description: "Planta y cose\xF1a"
  NPCName: Juana
  itemReward: {fileID: 11400000, guid: f4bf22972723ec142b964321a849212e, type: 2}
  ids:
  - Wheat
  amounts: 06000000
